{
 "cheAF2": 306,
 "totalCheA": 96434,
 "wrGenomesWithoutCheAF2": [
  "GCF_000501055.1",
  "GCF_000501015.1",
  "GCF_000501175.1",
  "GCF_000501615.1",
  "GCF_000501235.1",
  "GCF_000501195.1",
  "GCF_000501815.1",
  "GCF_000465015.1",
  "GCF_000465075.1",
  "GCF_002916695.1",
  "GCF_000413035.1",
  "GCF_000501315.1",
  "GCF_000501335.1",
  "GCF_000502135.1",
  "GCF_000502035.1"
 ]
}